…
X <- replicate(10**3, rnorm(24, .1, 1), simplify = F)
  
ted_test <- function(vec){
  bar <- t.test(vec)
  qux <- broom::tidy(bar)
  return(qux)
}

xx <- map_dfr(X, ted_test)

xx %>% 
  filter(p.value < .05)

## # A tibble: 78 x 8
##    estimate statistic p.value parameter conf.low conf.high method    alternative
##       <dbl>     <dbl>   <dbl>     <dbl>    <dbl>     <dbl> <chr>     <chr>      
##  1    0.372      2.34 0.0284         23  0.0431      0.701 One Samp… two.sided  
##  2    0.563      2.17 0.0402         23  0.0275      1.10  One Samp… two.sided  
##  3    0.615      2.75 0.0113         23  0.153       1.08  One Samp… two.sided  
##  4    0.601      3.14 0.00462        23  0.205       0.997 One Samp… two.sided  
##  5    0.421      2.60 0.0162         23  0.0855      0.756 One Samp… two.sided  
##  6    0.371      2.61 0.0158         23  0.0765      0.665 One Samp… two.sided  
##  7    0.357      2.39 0.0254         23  0.0480      0.666 One Samp… two.sided  
##  8    0.483      2.66 0.0139         23  0.108       0.859 One Samp… two.sided  
##  9    0.403      2.10 0.0465         23  0.00671     0.799 One Samp… two.sided  
## 10    0.427      2.28 0.0323         23  0.0392      0.814 One Samp… two.sided  
## # … with 68 more rows
